System configuration
…
param_type: For engines only. Parameter type designation listed in the XML code of FACTS files for that engine.

Connecting rfacts to the system dependencies

To allow rfacts to find the CSV file above, you must set the RFACTS_PATHS environment variable. For a single R session, you can do this with Sys.setenv(RFACTS_PATHS = "path/to/file.csv"). To set RFACTS_PATHS permanently for all future sessions, open your .Renviron file with usethis::edit_r_environ() and add a line with RFACTS_PATHS=path/to/file.csv. Then, restart R so the changes take effect. Verify that you did this correctly by checking the value of the environment variable.

Sys.getenv("RFACTS_PATHS")
#> [1] "/private/var/folders/k3/q1f45fsn4_13jbn0742d4zj40000gn/T/RtmpPLHdy3/Rinsta23c6b13d1a0/rfacts/example_paths.csv"

Check the system dependency information with rfacts_paths().

library(rfacts)
rfacts_paths()
#> # A tibble: 22 x 6
#>    executable_type facts_version path         engine_name param_set   param_type
#>    <chr>           <chr>         <chr>        <chr>       <chr>       <chr>     
#>  1 mono            6.2.4         /PATH/TO/mo… <NA>        <NA>        <NA>      
#>  2 mono            6.2.5         /PATH/TO/mo… <NA>        <NA>        <NA>      
#>  3 flfll           6.2.4         /PATH/TO/fl… <NA>        <NA>        <NA>      
#>  4 flfll           6.2.5         /PATH/TO/fl… <NA>        <NA>        <NA>      
#>  5 engine          6.0.0.1       /PATH/TO/fa… contin      NucleusPar… 1         
#>  6 engine          6.0.0.1       /PATH/TO/fa… dichot      NucleusPar… 2         
#>  7 engine          6.0.0.1       /PATH/TO/fa… multep      MultipleEn… 1         
#>  8 engine          6.0.0.1       /PATH/TO/fa… tte         TTEDesignP… 3         
#>  9 engine          6.0.0.1       /PATH/TO/fa… aipf_contin AIPFParame… 1         
#> 10 engine          6.0.0.1       /PATH/TO/fa… aipf_dichot AIPFParame… 2         
#> # … with 12 more rows

Use rfacts_sitrep() to verify that all the executables exist and are indeed executable. This vignette uses toy paths that do not actually exist. In your setup, if exists and is_executable are all TRUE, then your setup is configured correctly.

rfacts_sitrep()
#> # A tibble: 22 x 5
#>    executable_type facts_version exists is_executable path                      
#>    <chr>           <chr>         <lgl>  <lgl>         <chr>                     
#>  1 mono            6.2.4         FALSE  FALSE         /PATH/TO/mono/mono-5.20.1…
#>  2 mono            6.2.5         FALSE  FALSE         /PATH/TO/mono/mono-5.20.1…
#>  3 flfll           6.2.4         FALSE  FALSE         /PATH/TO/flfll/prd/prior_…
#>  4 flfll           6.2.5         FALSE  FALSE         /PATH/TO/flfll/prd/prior_…
#>  5 engine          6.0.0.1       FALSE  FALSE         /PATH/TO/facts/engines/co…
#>  6 engine          6.0.0.1       FALSE  FALSE         /PATH/TO/facts/engines/di…
#>  7 engine          6.0.0.1       FALSE  FALSE         /PATH/TO/facts/engines/mu…
#>  8 engine          6.0.0.1       FALSE  FALSE         /PATH/TO/facts/engines/tt…
#>  9 engine          6.0.0.1       FALSE  FALSE         /PATH/TO/facts/engines/ai…
#> 10 engine          6.0.0.1       FALSE  FALSE         /PATH/TO/facts/engines/ai…
#> # … with 12 more rows
…
